%YAML 1.1
%TAG !u! tag:unity3d.com,2011:
--- !u!55 &1
PhysicsManager:
  m_ObjectHideFlags: 0
  serializedVersion: 2
  m_Gravity: {x: 0, y: -4.905, z: 0}
  m_DefaultMaterial: {fileID: 0}
  m_BounceThreshold: 40
  m_SleepThreshold: 0.005
  m_DefaultContactOffset: 0.001
  m_SolverIterationCount: 10
  m_SolverVelocityIterations: 1
  m_QueriesHitTriggers: 1
  m_EnableAdaptiveForce: 1
  m_LayerCollisionMatrix: fffdfffffffdfffffffdfffffffffffffffdfffffffdfffffffffffffffffffffffdffffc8fcffffffffffffffffffffffffffffffffffffffffffffffffffffffffffffffffffffffffffffffffffffffffffffffffffffffffffffffffffffffffffffffffffffffffffffffffffffffffffffffffffffffffffffffffffff
